…
In summary, what we have done is as follows: - Only considered countries
with an ISO code (meaning no regionals) - Merged the data between the
energy consumption and the patent data for each country and each year

Of course, we can do further consolidation as we go along.

**A warning about our observations**

Like many real-world data, we ARE looking at an unbalanced dataset.

``` r
combine %>% group_by(Code) %>% count(Code)
```

    ## # A tibble: 69 × 2
    ## # Groups:   Code [69]
    ##    Code      n
    ##    <chr> <int>
    ##  1 ARG       7
    ##  2 AUS      10
    ##  3 AUT       9
    ##  4 AZE       1
    ##  5 BEL       8
    ##  6 BGR       6
    ##  7 BRA       9
    ##  8 BRN       1
    ##  9 CAN      10
    ## 10 CHE       8
    ## # ℹ 59 more rows
…
